{
	"entryPoints": [ "source/index.ts" ],
	"out": "public/",
	"plugin": [ "typedoc-plugin-coverage" ],
	"visibilityFilters":
	{
		"protected": false,
		"private": false,
		"inherited": false,
		"external": false
	},
	"groupOrder": [ "Utilities", "Reading", "Writing", "EventEmitter", "Events" ],
	"exclude":
	[
		"source/interfaces.ts"
	],
	"navigation":
	{
		"includeCategories": true,
		"includeGroups": true
	},
	"navigationLinks":
	{
	}
}
